Introduction to data visualization
…
* Defines how the variables are applied to the plot

--

```r
county_data %>%
  select(hh_income, per_dem_2016) %>%
  rename(
    x = hh_income,
    y = per_dem_2016
  )
```

```
## # A tibble: 3,141 x 2
##        x      y
##    <int>  <dbl>
##  1 53682 0.240 
##  2 50221 0.196 
##  3 32911 0.467 
##  4 36447 0.214 
##  5 44145 0.0847
##  6 32033 0.751 
##  7 29918 0.428 
##  8 39962 0.279 
##  9 32402 0.418 
## 10 34907 0.145 
## # … with 3,131 more rows
```
…
--

.pull-left[

```r
county_data %>%
  select(state)
```

```
## # A tibble: 3,141 x 1
##    state
##    <fct>
##  1 AL   
##  2 AL   
##  3 AL   
##  4 AL   
##  5 AL   
##  6 AL   
##  7 AL   
##  8 AL   
##  9 AL   
## 10 AL   
## # … with 3,131 more rows
```

]

.pull-right[

```r
county_data %>%
  count(state)
```

```
## # A tibble: 51 x 2
##    state     n
##    <fct> <int>
##  1 AK       29
##  2 AL       67
##  3 AR       75
##  4 AZ       15
##  5 CA       58
##  6 CO       64
##  7 CT        8
##  8 DC        1
##  9 DE        3
## 10 FL       67
## # … with 41 more rows
```
…
<img src="01-intro-data-viz_files/figure-html/default6-1.png" width="864" style="display: block; margin: auto;" />

---

# Building Minard's map in R

.pull-left[

## `troops`

```
## # A tibble: 51 x 5
##     long   lat survivors direction group
##    <dbl> <dbl>     <dbl> <chr>     <dbl>
##  1  24    54.9    340000 A             1
##  2  24.5  55      340000 A             1
##  3  25.5  54.5    340000 A             1
##  4  26    54.7    320000 A             1
##  5  27    54.8    300000 A             1
##  6  28    54.9    280000 A             1
##  7  28.5  55      240000 A             1
##  8  29    55.1    210000 A             1
##  9  30    55.2    180000 A             1
## 10  30.3  55.3    175000 A             1
## # … with 41 more rows
```

]

.pull-right[

## `cities`

```
## # A tibble: 20 x 3
##     long   lat city      
##    <dbl> <dbl> <chr>     
##  1  24    55   Kowno     
##  2  25.3  54.7 Wilna     
##  3  26.4  54.4 Smorgoni  
##  4  26.8  54.3 Moiodexno 
##  5  27.7  55.2 Gloubokoe 
##  6  27.6  53.9 Minsk     
##  7  28.5  54.3 Studienska
##  8  28.7  55.5 Polotzk   
##  9  29.2  54.4 Bobr      
## 10  30.2  55.3 Witebsk   
## # … with 10 more rows
```
…
