Showing the right numbers
…
<img src="02-showing-numbers-customization_files/figure-html/gapminder-out-1.png" width="504" style="display: block; margin: auto;" />

]

---

# Grouped data and the `group` aesthetic

```r
gapminder
```

```
## # A tibble: 1,704 x 6
##    country     continent  year lifeExp      pop gdpPercap
##    <fct>       <fct>     <int>   <dbl>    <int>     <dbl>
##  1 Afghanistan Asia       1952    28.8  8425333      779.
##  2 Afghanistan Asia       1957    30.3  9240934      821.
##  3 Afghanistan Asia       1962    32.0 10267083      853.
##  4 Afghanistan Asia       1967    34.0 11537966      836.
##  5 Afghanistan Asia       1972    36.1 13079460      740.
##  6 Afghanistan Asia       1977    38.4 14880372      786.
##  7 Afghanistan Asia       1982    39.9 12881816      978.
##  8 Afghanistan Asia       1987    40.8 13867957      852.
##  9 Afghanistan Asia       1992    41.7 16317921      649.
## 10 Afghanistan Asia       1997    41.8 22227415      635.
## # … with 1,694 more rows
```
…
---

# Geoms can transform data

```r
gss_sm
```

```
## # A tibble: 2,867 x 32
##     year    id ballot   age childs sibs  degree race  sex   region income16
##    <dbl> <dbl> <labe> <dbl>  <dbl> <lab> <fct>  <fct> <fct> <fct>  <fct>   
##  1  2016     1 1         47      3 2     Bache… White Male  New E… $170000…
##  2  2016     2 2         61      0 3     High … White Male  New E… $50000 …
##  3  2016     3 3         72      2 3     Bache… White Male  New E… $75000 …
##  4  2016     4 1         43      4 3     High … White Fema… New E… $170000…
##  5  2016     5 3         55      2 2     Gradu… White Fema… New E… $170000…
##  6  2016     6 2         53      2 2     Junio… White Fema… New E… $60000 …
##  7  2016     7 1         50      2 2     High … White Male  New E… $170000…
##  8  2016     8 3         23      3 6     High … Other Fema… Middl… $30000 …
##  9  2016     9 1         45      3 5     High … Black Male  Middl… $60000 …
## 10  2016    10 3         71      4 1     Junio… White Male  Middl… $60000 …
## # … with 2,857 more rows, and 21 more variables: relig <fct>, marital <fct>,
## #   padeg <fct>, madeg <fct>, partyid <fct>, polviews <fct>, happy <fct>,
## #   partners <fct>, grass <fct>, zodiac <fct>, pres12 <labelled>,
## #   wtssall <dbl>, income_rc <fct>, agegrp <fct>, ageq <fct>, siblings <fct>,
## #   kids <fct>, religion <fct>, bigregion <fct>, partners_rc <fct>, obama <dbl>
```
…
---

# Histograms and kernel densities

```r
midwest
```

```
## # A tibble: 437 x 28
##      PID county state  area poptotal popdensity popwhite popblack popamerindian
##    <int> <chr>  <chr> <dbl>    <int>      <dbl>    <int>    <int>         <int>
##  1   561 ADAMS  IL    0.052    66090      1271.    63917     1702            98
##  2   562 ALEXA… IL    0.014    10626       759      7054     3496            19
##  3   563 BOND   IL    0.022    14991       681.    14477      429            35
##  4   564 BOONE  IL    0.017    30806      1812.    29344      127            46
##  5   565 BROWN  IL    0.018     5836       324.     5264      547            14
##  6   566 BUREAU IL    0.05     35688       714.    35157       50            65
##  7   567 CALHO… IL    0.017     5322       313.     5298        1             8
##  8   568 CARRO… IL    0.027    16805       622.    16519      111            30
##  9   569 CASS   IL    0.024    13437       560.    13384       16             8
## 10   570 CHAMP… IL    0.058   173025      2983.   146506    16559           331
## # … with 427 more rows, and 19 more variables: popasian <int>, popother <int>,
## #   percwhite <dbl>, percblack <dbl>, percamerindan <dbl>, percasian <dbl>,
## #   percother <dbl>, popadults <int>, perchsd <dbl>, percollege <dbl>,
## #   percprof <dbl>, poppovertyknown <int>, percpovertyknown <dbl>,
## #   percbelowpoverty <dbl>, percchildbelowpovert <dbl>, percadultpoverty <dbl>,
## #   percelderlypoverty <dbl>, inmetro <int>, category <chr>
```
…
---

```r
oecd_sum
```

```
## # A tibble: 57 x 5
## # Groups:   year [57]
##     year other   usa  diff hi_lo
##    <int> <dbl> <dbl> <dbl> <chr>
##  1  1960  68.6  69.9 1.3   Below
##  2  1961  69.2  70.4 1.2   Below
##  3  1962  68.9  70.2 1.30  Below
##  4  1963  69.1  70   0.9   Below
##  5  1964  69.5  70.3 0.800 Below
##  6  1965  69.6  70.3 0.7   Below
##  7  1966  69.9  70.3 0.400 Below
##  8  1967  70.1  70.7 0.6   Below
##  9  1968  70.1  70.4 0.3   Below
## 10  1969  70.1  70.6 0.5   Below
## # … with 47 more rows
```
…
---

# `ggrepel::geom_text_repel()`

```r
elections_historic %>%
  select(2:7)
```

```
## # A tibble: 49 x 6
##     year winner                 win_party ec_pct popular_pct popular_margin
##    <int> <chr>                  <chr>      <dbl>       <dbl>          <dbl>
##  1  1824 John Quincy Adams      D.-R.      0.322       0.309        -0.104 
##  2  1828 Andrew Jackson         Dem.       0.682       0.559         0.122 
##  3  1832 Andrew Jackson         Dem.       0.766       0.547         0.178 
##  4  1836 Martin Van Buren       Dem.       0.578       0.508         0.142 
##  5  1840 William Henry Harrison Whig       0.796       0.529         0.0605
##  6  1844 James Polk             Dem.       0.618       0.495         0.0145
##  7  1848 Zachary Taylor         Whig       0.562       0.473         0.0479
##  8  1852 Franklin Pierce        Dem.       0.858       0.508         0.0695
##  9  1856 James Buchanan         Dem.       0.588       0.453         0.122 
## 10  1860 Abraham Lincoln        Rep.       0.594       0.396         0.101 
## # … with 39 more rows
```
…
---

# One more time

```r
bbc_year_size_duration <- bbc %>% 
  group_by(grant_year, grant_program, grant_duration_text) %>% 
  summarize(total = sum(grant_amount),
            avg = mean(grant_amount),
            number = n())
bbc_year_size_duration
```

```
## # A tibble: 21 x 6
## # Groups:   grant_year, grant_program [8]
##    grant_year grant_program grant_duration_text    total    avg number
##         <dbl> <chr>         <chr>                  <dbl>  <dbl>  <int>
##  1       2016 Main Grants   2 years                97355 48678.      2
##  2       2016 Main Grants   3 years             16308231 86746.    188
##  3       2016 Small Grants  3 years               884902 28545.     31
##  4       2017 Main Grants   1 year                 59586 29793       2
##  5       2017 Main Grants   2 years               825732 82573.     10
##  6       2017 Main Grants   3 years             47617605 90528.    526
##  7       2017 Small Grants  1 year                 10000 10000       1
##  8       2017 Small Grants  2 years               245227 18864.     13
##  9       2017 Small Grants  3 years             13636128 27716.    492
## 10       2018 Main Grants   1 year                118134 59067       2
## # … with 11 more rows
```
…
---

# Wrangle data

```r
births_combined
```

```
## # A tibble: 7,670 x 5
##     year month date_of_month day_of_week births
##    <dbl> <dbl>         <dbl>       <dbl>  <dbl>
##  1  1994     1             1           6   8096
##  2  1994     1             2           7   7772
##  3  1994     1             3           1  10142
##  4  1994     1             4           2  11248
##  5  1994     1             5           3  11053
##  6  1994     1             6           4  11406
##  7  1994     1             7           5  11251
##  8  1994     1             8           6   8653
##  9  1994     1             9           7   7910
## 10  1994     1            10           1  10498
## # … with 7,660 more rows
```
…
---

# Heatmap

```r
(avg_births_month_day <- births %>% 
  group_by(month, date_of_month_categorical) %>% 
  summarize(avg_births = mean(births)))
```

```
## # A tibble: 366 x 3
## # Groups:   month [12]
##    month   date_of_month_categorical avg_births
##    <ord>   <fct>                          <dbl>
##  1 January 1                              7827.
##  2 January 2                              9356.
##  3 January 3                             10869.
##  4 January 4                             11064.
##  5 January 5                             10992.
##  6 January 6                             10942.
##  7 January 7                             10963.
##  8 January 8                             10656.
##  9 January 9                             10672.
## 10 January 10                            11072.
## # … with 356 more rows
```
…
# Bump charts

---

```r
(sa_co2 <- wdi_clean %>% 
  filter(region == "South Asia") %>% 
  filter(year >= 2004, year < 2015) %>% 
  group_by(year) %>% 
  mutate(rank = rank(co2_emissions)))
```

```
## # A tibble: 88 x 10
## # Groups:   year [11]
##    iso2c country  year life_expectancy access_to_elect… co2_emissions
##    <chr> <chr>   <dbl>           <dbl>            <dbl>         <dbl>
##  1 AF    Afghan…  2014            63.0             89.5        0.294 
##  2 AF    Afghan…  2012            62.1             69.1        0.345 
##  3 AF    Afghan…  2013            62.5             68.9        0.310 
##  4 AF    Afghan…  2006            58.8             28.6        0.0624
##  5 AF    Afghan…  2007            59.4             34.3        0.0839
##  6 AF    Afghan…  2009            60.5             45.7        0.238 
##  7 AF    Afghan…  2010            61.0             42.7        0.290 
##  8 AF    Afghan…  2011            61.6             43.2        0.406 
##  9 AF    Afghan…  2008            59.9             42.4        0.152 
## 10 AF    Afghan…  2004            57.8             NA          0.0384
## # … with 78 more rows, and 4 more variables: gdp_per_cap <dbl>, region <chr>,
## #   income <chr>, rank <dbl>
```
…
