…
<img src="04-making-maps_files/figure-html/plot-crime-wday-1.png" width="80%" style="display: block; margin: auto;" />

There is a large difference in the geographic density of narcotics crimes relative to the other catgories. While burglaries, motor vehicle thefts, and robberies are reasonably prevalent all across the city, the vast majority of narcotics crimes occur in the west and south sides of the city.

### Locations of murders

While `geom_point()` was not appropriate for graphing a large number of observations in a dense geographic location, it does work rather well for less dense areas. Now let's limit our analysis strictly to reported incidents of homicide in 2017.


```r
(homicides <- crimes %>%
  filter(`Primary Type` == "HOMICIDE"))
## # A tibble: 671 × 22
##          ID `Case Number` Date            Block IUCR  `Primary Type` Description
##       <dbl> <chr>         <chr>           <chr> <chr> <chr>          <chr>      
##  1    23128 JA149608      02/11/2017 07:… 001X… 0110  HOMICIDE       FIRST DEGR…
##  2    23851 JA530946      11/30/2017 11:… 088X… 0110  HOMICIDE       FIRST DEGR…
##  3    23355 JA302423      06/11/2017 06:… 047X… 0110  HOMICIDE       FIRST DEGR…
##  4    23379 JA312425      06/18/2017 04:… 006X… 0110  HOMICIDE       FIRST DEGR…
##  5    23673 JA490016      10/28/2017 10:… 048X… 0110  HOMICIDE       FIRST DEGR…
##  6    23224 JA210752      04/03/2017 12:… 013X… 0110  HOMICIDE       FIRST DEGR…
##  7    23627 JA461918      10/07/2017 11:… 018X… 0110  HOMICIDE       FIRST DEGR…
##  8    23628 JA461918      10/07/2017 11:… 018X… 0110  HOMICIDE       FIRST DEGR…
##  9 10836558 JA138326      02/01/2017 06:… 013X… 0142  HOMICIDE       RECKLESS H…
## 10    23477 JA364517      07/26/2017 05:… 047X… 0110  HOMICIDE       FIRST DEGR…
## # … with 661 more rows, and 15 more variables: `Location Description` <chr>,
## #   Arrest <lgl>, Domestic <lgl>, Beat <chr>, District <chr>, Ward <dbl>,
## #   `Community Area` <dbl>, `FBI Code` <chr>, `X Coordinate` <dbl>,
## #   `Y Coordinate` <dbl>, Year <dbl>, `Updated On` <chr>, Latitude <dbl>,
## #   Longitude <dbl>, Location <chr>
```
…
<img src="04-making-maps_files/figure-html/plot-murder-2.png" width="80%" style="display: block; margin: auto;" />

North Lawndale had the most reported homicides in 2017, whereas Kenwood had only a handful. And even though `homicides` contained data for homicides across the entire city, `ggmap()` automatically cropped the graph to keep just the homicides that occurred within the bounding box.

All the other aesthetic customizations of `geom_point()` work with `ggmap`. So we could expand these neighborhood maps to include all violent crime categories^[Specifcally homicides, criminal sexual assault, and robbery. [Aggravated assault and aggravated robbery are also defined as violent crimes by the Chicago Police Departmant](http://gis.chicagopolice.org/clearmap_crime_sums/crime_types.html), but the coding system for this data set does not distinguish between ordinary and aggravated types of assault and robbery.] and distinguish each type by `color`:


```r
(violent <- crimes %>%
  filter(`Primary Type` %in% c("HOMICIDE",
                               "CRIM SEXUAL ASSAULT",
                               "ROBBERY")))
## # A tibble: 14,146 × 22
##          ID `Case Number` Date            Block IUCR  `Primary Type` Description
##       <dbl> <chr>         <chr>           <chr> <chr> <chr>          <chr>      
##  1 11164874 JA531910      12/01/2017 06:… 022X… 0265  CRIM SEXUAL A… AGGRAVATED…
##  2 10995008 JA322389      06/25/2017 07:… 003X… 031A  ROBBERY        ARMED: HAN…
##  3 11175304 JA545986      12/11/2017 07:… 007X… 031A  ROBBERY        ARMED: HAN…
##  4 11175934 JA546734      12/12/2017 06:… 007X… 031A  ROBBERY        ARMED: HAN…
##  5 11227287 JB147188      10/08/2017 03:… 092X… 0281  CRIM SEXUAL A… NON-AGGRAV…
##  6 11227634 JB147599      08/26/2017 10:… 001X… 0281  CRIM SEXUAL A… NON-AGGRAV…
##  7    23128 JA149608      02/11/2017 07:… 001X… 0110  HOMICIDE       FIRST DEGR…
##  8 11043709 JA378592      08/05/2017 03:… 038X… 0313  ROBBERY        ARMED: OTH…
##  9 11170225 JA538651      12/06/2017 09:… 092X… 031A  ROBBERY        ARMED: HAN…
## 10 11228964 JB149656      12/24/2017 02:… 005X… 0330  ROBBERY        AGGRAVATED 
## # … with 14,136 more rows, and 15 more variables: `Location Description` <chr>,
## #   Arrest <lgl>, Domestic <lgl>, Beat <chr>, District <chr>, Ward <dbl>,
## #   `Community Area` <dbl>, `FBI Code` <chr>, `X Coordinate` <dbl>,
## #   `Y Coordinate` <dbl>, Year <dbl>, `Updated On` <chr>, Latitude <dbl>,
## #   Longitude <dbl>, Location <chr>
```
…
<img src="04-making-maps_files/figure-html/albersusa-1.png" width="80%" style="display: block; margin: auto;" />

### Add data to the map

Region boundaries serve as the background in geospatial data visualization - so now we need to add data. Some types of geographic data (points and symbols) are overlaid on top of the boundaries, whereas other data (fill) are incorporated into the region layer itself.

#### Points

Let's use our `usa_48` map data to add some points. The `airports` data frame in the `nycflights13` package includes geographic info on airports in the United States.


```r
library(nycflights13)
airports
## # A tibble: 1,458 × 8
##    faa   name                             lat    lon   alt    tz dst   tzone    
##    <chr> <chr>                          <dbl>  <dbl> <dbl> <dbl> <chr> <chr>    
##  1 04G   Lansdowne Airport               41.1  -80.6  1044    -5 A     America/…
##  2 06A   Moton Field Municipal Airport   32.5  -85.7   264    -6 A     America/…
##  3 06C   Schaumburg Regional             42.0  -88.1   801    -6 A     America/…
##  4 06N   Randall Airport                 41.4  -74.4   523    -5 A     America/…
##  5 09J   Jekyll Island Airport           31.1  -81.4    11    -5 A     America/…
##  6 0A9   Elizabethton Municipal Airport  36.4  -82.2  1593    -5 A     America/…
##  7 0G6   Williams County Airport         41.5  -84.5   730    -5 A     America/…
##  8 0G7   Finger Lakes Regional Airport   42.9  -76.8   492    -5 A     America/…
##  9 0P2   Shoestring Aviation Airfield    39.8  -76.6  1000    -5 U     America/…
## 10 0S9   Jefferson County Intl           48.1 -123.    108    -8 A     America/…
## # … with 1,448 more rows
```
…
<img src="04-making-maps_files/figure-html/crop-1.png" width="80%" style="display: block; margin: auto;" />

Alternatively, we can use `st_as_sf()` to convert `airports` to a simple features data frame.


```r
airports_sf <- st_as_sf(airports, coords = c("lon", "lat"))
st_crs(airports_sf) <- 4326   # set the coordinate reference system
airports_sf
## Simple feature collection with 1458 features and 6 fields
## Geometry type: POINT
## Dimension:     XY
## Bounding box:  xmin: -177 ymin: 19.7 xmax: 174 ymax: 72.3
## Geodetic CRS:  WGS 84
## # A tibble: 1,458 × 7
##    faa   name                    alt    tz dst   tzone     geometry
##  * <chr> <chr>                 <dbl> <dbl> <chr> <chr>  <POINT [°]>
##  1 04G   Lansdowne Airport      1044    -5 A     Amer… (-80.6 41.1)
##  2 06A   Moton Field Municipa…   264    -6 A     Amer… (-85.7 32.5)
##  3 06C   Schaumburg Regional     801    -6 A     Amer…   (-88.1 42)
##  4 06N   Randall Airport         523    -5 A     Amer… (-74.4 41.4)
##  5 09J   Jekyll Island Airport    11    -5 A     Amer… (-81.4 31.1)
##  6 0A9   Elizabethton Municip…  1593    -5 A     Amer… (-82.2 36.4)
##  7 0G6   Williams County Airp…   730    -5 A     Amer… (-84.5 41.5)
##  8 0G7   Finger Lakes Regiona…   492    -5 A     Amer… (-76.8 42.9)
##  9 0P2   Shoestring Aviation …  1000    -5 U     Amer… (-76.6 39.8)
## 10 0S9   Jefferson County Intl   108    -8 A     Amer…  (-123 48.1)
## # … with 1,448 more rows
```
…
#### Fill (choropleths)

**Choropleth maps** encode information by assigning shades of colors to defined areas on a map (e.g. countries, states, counties, zip codes). There are lots of ways to tweak and customize these graphs, which is generally a good idea because remember that color is one of the harder-to-decode channels.

We will continue to use the `usa_48` simple features data frame and draw a choropleth for the number of foreign-born individuals in each state. We get those files from the `census_bureau` folder. Let's also normalize our measure by the total population to get the rate of foreign-born individuals in the population:


```r
(fb_state <- here("data", "census_bureau",
                  "ACS_13_5YR_B05012_state", "ACS_13_5YR_B05012.csv") %>%
   read_csv() %>%
  mutate(rate = HD01_VD03 / HD01_VD01))
## # A tibble: 51 × 10
##    GEO.id      GEO.id2 `GEO.display-la…` HD01_VD01 HD02_VD01 HD01_VD02 HD02_VD02
##    <chr>       <chr>   <chr>                 <dbl> <lgl>         <dbl>     <dbl>
##  1 0400000US01 01      Alabama             4799277 NA          4631045      2881
##  2 0400000US02 02      Alaska               720316 NA           669941      1262
##  3 0400000US04 04      Arizona             6479703 NA          5609835      7725
##  4 0400000US05 05      Arkansas            2933369 NA          2799972      2568
##  5 0400000US06 06      California         37659181 NA         27483342     30666
##  6 0400000US08 08      Colorado            5119329 NA          4623809      5778
##  7 0400000US09 09      Connecticut         3583561 NA          3096374      5553
##  8 0400000US10 10      Delaware             908446 NA           831683      2039
##  9 0400000US11 11      District of Colu…    619371 NA           534142      2017
## 10 0400000US12 12      Florida            19091156 NA         15392410     16848
## # … with 41 more rows, and 3 more variables: HD01_VD03 <dbl>, HD02_VD03 <dbl>,
## #   rate <dbl>
```
…
